{
  "type": "service_account",
  "project_id": "curso-devops-398119",
  "private_key_id": "38fb82838c1a2394c41e20a909950a707eac91ac",
  "private_key": "-----BEGIN PRIVATE KEY-----\nMIIEvgIBADANBgkqhkiG9w0BAQEFAASCBKgwggSkAgEAAoIBAQDETBj2Hp//zqSQ\nZQ7GcRwfMuapqooiWI9ZS8ZLi32bpt/omue2M0ntCM8JfEktQStMBNaQsS5CyLAW\nNlMffyt3eW6BCam806QMq/qcJ7iM8IFTZ9nrVEXJHWlQJg/c+U8BPrQnIv8eNpWt\nJFi2xveGN8EIHENIH7OgyVJazud5+PBMhI9NJcuYi/kxjNdBGo6ZNppgVT9q3rDB\nr4PI4MCTGZ6Y56ghsiqjNMGvLNgWre101ZCEZHzPRZeXzF9OmiREH/9j1erPpJx0\npYHxoriDZVJCb87idKNVCWp+OR2I4nkYh4DVaThJr38Ny4phxnCbl9lFx8p+aHL2\nbVix7r2rAgMBAAECggEACp31uP94YUTzUFQG8+No7/m4JskbO4xVWdu9V+ytgzOy\nvJ6plbM5y7ZEQcZqdtDQNLELoeZ+Erf5aNomA3gaCRY/odRnTS1CnDouYy/KzY9c\nj1RN9xUnHnTsHfJREqnxWfyNkJMAqskCWMu0eKj+TlDJrKn1VvtP+IxVsKUBjsPj\nLkW5wpYsNyTheSBa2fw0fvat2gwExD9giXQ4OzSSBG1Rsl9OjdLq0dSOPwou0DVc\nPFu5ilb0TdTcTfAxXTccxuxvidYJpTgEWT+wx0ovSBsqvofFDR0jL2oBs7I6a4W7\n+iNynjyKWmySOl/lW3zz7q99zM8dLAPo7D3M2W7OAQKBgQDrxOzlTa1Gl1iCrJJl\n8UpeME2vs39Ck4/17x8tSoEqMTye/0YYk6jF8s2T66dQD9+Gm+XBB8Pfx6B1Nlqt\neR+NYk3DA4NtfIiW2ZlsSXFlwApAR+H3yF1pA0OcWctFyrMUrrc8O3rOreLoifQL\nsbyDiAM4XSxb4hIvHe7SqmW2KwKBgQDVJBo80zpmSa4ZHOVbCwfQFCIzkOtzaLPU\ntsa4FPgHvuJJJMC91tNfoLQ1i3Jta8JI3zLjIFdVqq88RkDHcltj8IPRhHajOOS7\nUarry1GjGabXTxBZnS7AFNQGQWs8AQCtXax86JGW/XjDqDt35SvQyroZsFpi4KDT\naROzrjLWgQKBgQChB/2tmGJTJqfjiK7tReK/dkp5SSYQeO0I0uv+aTbTdJGtHznn\nK2NI4E+dSoUaX90R+YTxVLZqL9TeeeNxPJtaW9w06D9qFnbMYY8ysO7syj+2K+Kg\n9I8oXHxfW81Eu++YnsS0NQPqCkZDAYZYPms9gzZ/1tOnZj95Qv6NkKirxQKBgQCb\nqhpfggWM3xL/1FLOA2hZV9sCvjy3tShhmnvXxbjAL3Ek6mq6O0N0+/GhiY6wy5rB\njgGkT+J49oe1BboZ8DM+8lHTm2LqIosrI6IpQ/0DmaB4b44JZPrX3l5bkzu2PyU3\neMqZD2IFXGnuu9dy4TT28JiqWlopDNVokb2J5RfMAQKBgHwzxly7+h73Om8XJS0L\nQKDcJat+xohQUKERso2w9pjT9hEBkdqpbIfzKbn8fFvPzyesnUcUkaqm+UyQDI+v\nBBNEQYYK3PDAojMvq0ep3Ksu+jUwIoAXOi04Lh9i/j67L1DpsEwD9EeSTuWqMr9Y\nD80H0+kBkCjlJNLAcohRCDho\n-----END PRIVATE KEY-----\n",
  "client_email": "terraform@curso-devops-398119.iam.gserviceaccount.com",
  "client_id": "115839885159473615786",
  "auth_uri": "https://accounts.google.com/o/oauth2/auth",
  "token_uri": "https://oauth2.googleapis.com/token",
  "auth_provider_x509_cert_url": "https://www.googleapis.com/oauth2/v1/certs",
  "client_x509_cert_url": "https://www.googleapis.com/robot/v1/metadata/x509/terraform%40curso-devops-398119.iam.gserviceaccount.com",
  "universe_domain": "googleapis.com"
}
